…
Formatting Data

We want the source (lefthand) nodes to be the region, and the target (righthand) nodes to be the immigration class. Source nodes must be in the first column, target nodes must be in the second column, and weights (in our case, counts) must be in the third column.

sankey_immigration <- immigration %>%
  gather(key = Admission_Class, value = Residents, -Region)

sankey_immigration

## # A tibble: 35 x 3
##    Region        Admission_Class Residents
##    <chr>         <chr>               <dbl>
##  1 Africa        Employment         4813  
##  2 Asia          Employment        89533  
##  3 Europe        Employment        20945  
##  4 North America Employment        18238  
##  5 Oceania       Employment         1186  
##  6 South America Employment         9296  
##  7 Unknown       Employment           36.0
##  8 Africa        Diversity         19659  
##  9 Asia          Diversity         14562  
## 10 Europe        Diversity         11425  
## # ... with 25 more rows
…
